Asignacion 04 28 2022
…
Filtrado Ca > 15

df_2 <- df |>
  filter(Ca <= 10)
df_2

## # A tibble: 305 x 14
##       id  Long   Lat     z    MO    Ca    Mg      K    Na  CICE    CE    Fe
##    <dbl> <dbl> <dbl> <dbl> <dbl> <dbl> <dbl>  <dbl> <dbl> <dbl> <dbl> <dbl>
##  1     1 -72.6  8.08   120  2.09  7.83 1.56  0.175  0.291  9.85 0.130 133. 
##  2     2 -72.6  8.08   119  1.65  3.95 0.771 0.496  0.136  5.36 0.126  29.7
##  3     3 -72.6  8.08   111  1.65  5.88 1.23  0.273  0.135  7.52 0.287 237. 
##  4     4 -72.6  8.08   114  2.48  5.62 1.13  0.217  0.163  7.13 0.415 331. 
##  5     6 -72.6  8.09   109  1.93  7.49 1.56  0.244  0.115  9.41 0.410 258. 
##  6    10 -72.6  8.10   115  2.06  7.96 1.78  0.133  0.308 10.2  0.245 446. 
##  7    13 -72.6  8.10   111  2.88  9.07 2.14  0.129  0.247 11.6  0.169 225. 
##  8    15 -72.6  8.10   114  1.68  4.48 0.789 0.0799 0.197  5.55 0.84  196. 
##  9    16 -72.6  8.10   125  2.63  7.48 1.52  0.0140 0.257  9.26 0.213 198. 
## 10    17 -72.6  8.11    97  1.33  5.95 1.32  0.0676 0.285  7.62 0.572  12.4
## # ... with 295 more rows, and 2 more variables: Cu <dbl>, Zn <dbl>
…
